[gd_resource type="DynamicFont" load_steps=2 format=2]

[ext_resource path="res://Assets/Fonts/FutureMillennium.ttf" type="DynamicFontData" id=1]

[resource]
size = 38
outline_size = 2
font_data = ExtResource( 1 )
